Introduction to mason
…
Ok, let’s say we want to several models. We are interested in Fertility and Infant.Mortality as outcomes and Education and Agriculture as potential predictors. We also want to control for Catholic. This setup means we have four potential models to analyze. With mason this is relatively easy. Analyses in mason are essentially separated into a blueprint phase and a construction phase. Since any structure or building always needs a blueprint, let’s get that started.

library(mason)
design(swiss, 'glm')
#> # Analysis for glm is still under construction. 
#> # Showing data right now:
#> # A tibble: 47 x 6
#>   Fertility Agriculture Examination Education Catholic Infant.Mortality
#>       <dbl>       <dbl>       <int>     <int>    <dbl>            <dbl>
#> 1      80.2        17.0          15        12     9.96             22.2
#> 2      83.1        45.1           6         9    84.84             22.2
#> 3      92.5        39.7           5         5    93.40             20.2
#> 4      85.8        36.5          12         7    33.77             20.3
#> 5      76.9        43.5          17        15     5.16             20.6
#> 6      76.1        35.3           9         7    90.57             26.6
#> # ... with 41 more rows
…
You’ll notice that each time, the only thing that is printed to the console is the dataset. That’s because we haven’t constructed the analysis yet! We are still in the blueprint phase, so nothing new has been added! Since we have two outcomes and two predictors, we have a total of four models to analysis. Normally we would need to run each of the models separately. However, if simply list the outcomes and the predictors in mason, it will ‘loop’ through each combination and run all four models! Let’s add the variables.

dp <- dp %>% 
    add_variables('yvars', c('Fertility', 'Infant.Mortality')) %>% 
    add_variables('xvars', c('Education', 'Agriculture'))

Alright, still nothing has happened. However, we are now at the phase that we can construct the analysis using construct().

dp <- construct(dp)
dp
#> # Analysis for glm constructed but has not been scrubbed. 
#> # Here is a peek at the results:
#> # A tibble: 8 x 10
#>             Yterms      Xterms        term     estimate  std.error
#>              <chr>       <chr>       <chr>        <dbl>      <dbl>
#> 1        Fertility Agriculture (Intercept) 60.304375228 4.25125562
#> 2        Fertility Agriculture XtermValues  0.194201749 0.07671176
#> 3        Fertility   Education (Intercept) 79.610058532 2.10409711
#> 4        Fertility   Education XtermValues -0.862350293 0.14484472
#> 5 Infant.Mortality Agriculture (Intercept) 20.337954766 1.05754318
#> 6 Infant.Mortality Agriculture XtermValues -0.007805071 0.01908283
#> # ... with 2 more rows, and 5 more variables: statistic <dbl>,
#> #   p.value <dbl>, conf.low <dbl>, conf.high <dbl>, sample.size <int>

Cool! This is the unadjusted model, without any covariates. We said we wanted to adjust for Catholic. But let’s say we want to keep the unadjusted analysis too. Since we have ‘finished’ the analysis by cleaning it up, we can still add to the blueprint.

dp2 <- dp %>%
    add_variables('covariates', 'Catholic') %>% 
    construct()
dp2
#> # Analysis for glm constructed but has not been scrubbed. 
#> # Here is a peek at the results:
#> # A tibble: 20 x 10
#>             Yterms      Xterms        term     estimate  std.error
#>              <chr>       <chr>       <chr>        <dbl>      <dbl>
#> 1        Fertility Agriculture (Intercept) 60.304375228 4.25125562
#> 2        Fertility Agriculture XtermValues  0.194201749 0.07671176
#> 3        Fertility   Education (Intercept) 79.610058532 2.10409711
#> 4        Fertility   Education XtermValues -0.862350293 0.14484472
#> 5 Infant.Mortality Agriculture (Intercept) 20.337954766 1.05754318
#> 6 Infant.Mortality Agriculture XtermValues -0.007805071 0.01908283
#> # ... with 14 more rows, and 5 more variables: statistic <dbl>,
#> #   p.value <dbl>, conf.low <dbl>, conf.high <dbl>, sample.size <int>
…
